{
    "metadata": {
        "streamsync_version": "0.2.7"
    },
    "components": {
        "root": {
            "id": "root",
            "type": "root",
            "content": {
                "appName": "My App"
            },
            "parentId": null,
            "position": 0,
            "handlers": {},
            "visible": true
        },
        "c0f99a9e-5004-4e75-a6c6-36f17490b134": {
            "id": "c0f99a9e-5004-4e75-a6c6-36f17490b134",
            "type": "page",
            "content": {
                "pageMode": "compact",
                "emptinessColor": "#e9eef1"
            },
            "parentId": "root",
            "position": 0,
            "handlers": {},
            "visible": true
        },
        "28d3885b-0fb8-4d41-97c6-978540015431": {
            "id": "28d3885b-0fb8-4d41-97c6-978540015431",
            "type": "section",
            "content": {
                "title": "",
                "snapMode": "no",
                "containerShadow": "0px 4px 11px -12px #000000"
            },
            "parentId": "c0f99a9e-5004-4e75-a6c6-36f17490b134",
            "position": 0,
            "handlers": {},
            "visible": true
        },
        "d4a5e62c-c6fe-49c4-80d4-33862af8727d": {
            "id": "d4a5e62c-c6fe-49c4-80d4-33862af8727d",
            "type": "columns",
            "content": {},
            "parentId": "28d3885b-0fb8-4d41-97c6-978540015431",
            "position": 0,
            "handlers": {},
            "visible": true
        },
        "f3777e75-3659-4d44-8ef7-aeec0d06855b": {
            "id": "f3777e75-3659-4d44-8ef7-aeec0d06855b",
            "type": "column",
            "content": {
                "title": "",
                "width": "1",
                "verticalAlignment": "center",
                "horizontalAlignment": "center"
            },
            "parentId": "d4a5e62c-c6fe-49c4-80d4-33862af8727d",
            "position": 2,
            "handlers": {},
            "visible": true
        },
        "0d05bc9f-1655-4d0b-bc9b-c2f4c71a5117": {
            "id": "0d05bc9f-1655-4d0b-bc9b-c2f4c71a5117",
            "type": "horizontalstack",
            "content": {
                "alignment": "left"
            },
            "parentId": "f3777e75-3659-4d44-8ef7-aeec0d06855b",
            "position": 0,
            "handlers": {},
            "visible": true
        },
        "9556c0e3-8584-4ac9-903f-908a775a33ec": {
            "id": "9556c0e3-8584-4ac9-903f-908a775a33ec",
            "type": "button",
            "content": {
                "text": " Increment",
                "icon": "arrow-up"
            },
            "parentId": "0d05bc9f-1655-4d0b-bc9b-c2f4c71a5117",
            "position": 1,
            "handlers": {
                "click": "increment"
            },
            "visible": true
        },
        "51d1554e-1b88-461c-9353-1419cba0053a": {
            "id": "51d1554e-1b88-461c-9353-1419cba0053a",
            "type": "button",
            "content": {
                "text": "Decrement",
                "icon": "arrow-down"
            },
            "parentId": "0d05bc9f-1655-4d0b-bc9b-c2f4c71a5117",
            "position": 0,
            "handlers": {
                "click": "decrement"
            },
            "visible": true
        },
        "c2519671-9ce7-44e7-ba4e-b0efda9cb20e": {
            "id": "c2519671-9ce7-44e7-ba4e-b0efda9cb20e",
            "type": "column",
            "content": {
                "width": "1"
            },
            "parentId": "d4a5e62c-c6fe-49c4-80d4-33862af8727d",
            "position": 0,
            "handlers": {},
            "visible": true
        },
        "172a14df-f73a-44fa-8fb1-e8648e7d32d2": {
            "id": "172a14df-f73a-44fa-8fb1-e8648e7d32d2",
            "type": "metric",
            "content": {
                "metricValue": "@{counter}",
                "note": "@{message}",
                "name": "Counter"
            },
            "parentId": "c2519671-9ce7-44e7-ba4e-b0efda9cb20e",
            "position": 0,
            "handlers": {},
            "visible": true
        },
        "d4a71819-7444-4083-a1c7-7995452a7abf": {
            "id": "d4a71819-7444-4083-a1c7-7995452a7abf",
            "type": "separator",
            "content": {},
            "parentId": "d4a5e62c-c6fe-49c4-80d4-33862af8727d",
            "position": 1,
            "handlers": {},
            "visible": true
        },
        "onzxg7ojb3onjynz": {
            "id": "onzxg7ojb3onjynz",
            "type": "fileinput",
            "content": {
                "label": "Input Label"
            },
            "parentId": "c0f99a9e-5004-4e75-a6c6-36f17490b134",
            "position": 1,
            "handlers": {
                "ss-file-change": "process_file"
            },
            "binding": {
                "eventType": "ss-file-change",
                "stateRef": "my_var"
            }
        },
        "kjbs3u4wl82i4alw": {
            "id": "kjbs3u4wl82i4alw",
            "type": "message",
            "content": {
                "message": "@{updation_replies.img_upload_reply}"
            },
            "parentId": "c0f99a9e-5004-4e75-a6c6-36f17490b134",
            "position": 2,
            "handlers": {},
            "visible": "updation_replies.img_upload_reply"
        }
    }
}